Create an Empirical Distribution — dst_empirical • distionary
…
    An object of class c("finite", "dst").

    See also

    dst_finite()

    Examples

x <- rnorm(100)
dst_empirical(x)
#> [1] "finite" "dst"   
#> 
#>  probabilities :
#> # A tibble: 100 × 2
#>    location  size
#>       <dbl> <dbl>
#>  1    -2.61  0.01
#>  2    -2.44  0.01
#>  3    -2.27  0.01
#>  4    -1.91  0.01
#>  5    -1.91  0.01
#>  6    -1.86  0.01
#>  7    -1.82  0.01
#>  8    -1.70  0.01
#>  9    -1.63  0.01
#> 10    -1.51  0.01
#> # ℹ 90 more rows
dst_empirical(value, data = data.frame(value = x))
#> [1] "finite" "dst"   
#> 
#>  probabilities :
#> # A tibble: 100 × 2
#>    location  size
#>       <dbl> <dbl>
#>  1    -2.61  0.01
#>  2    -2.44  0.01
#>  3    -2.27  0.01
#>  4    -1.91  0.01
#>  5    -1.91  0.01
#>  6    -1.86  0.01
#>  7    -1.82  0.01
#>  8    -1.70  0.01
#>  9    -1.63  0.01
#> 10    -1.51  0.01
#> # ℹ 90 more rows
…
