Built-In Distributions • distionary
…
set.seed(42)
normal <- dst_norm(0, 1)
x <- realise(normal, n = 100)
# Inspect the first few observations
head(x)
#> [1]  1.3709584 -0.5646982  0.3631284  0.6328626  0.4042683 -0.1061245

An Empirical distribution can be made from these values.

empirical <- dst_empirical(x)
# Inspect
empirical
#> Finite distribution (discrete) 
#> --Parameters--
#> # A tibble: 100 × 2
#>    outcomes probs
#>       <dbl> <dbl>
#>  1    -2.99  0.01
#>  2    -2.66  0.01
#>  3    -2.44  0.01
#>  4    -2.41  0.01
#>  5    -1.78  0.01
#>  6    -1.76  0.01
#>  7    -1.72  0.01
#>  8    -1.46  0.01
#>  9    -1.39  0.01
#> 10    -1.37  0.01
#> # ℹ 90 more rows
…
